[{
  "name": "Bored to death",
  "year": 2016,
  "duration": 235,
  "artist": "blink-182",
  "album": "California",
  "public": true
},{
  "name": "Kryptonite",
  "year": 2016,
  "duration": 234,
  "artist": "3 doors down",
  "album": "The better life",
  "public": true
},{
  "name": "West hills",
  "year": 2021,
  "duration": 342,
  "artist": "the killers",
  "album": "Pressure machine",
  "public": true
},{
  "name": "Knee socks",
  "year": 2015,
  "duration": 258,
  "artist": "arctic monkeys",
  "album": "AM",
  "public": true
},{
  "name": "Heat above",
  "year": 2021,
  "duration": 341,
  "artist": "greta van fleet",
  "album": "Heat above",
  "public": true
}]